javac Cordic.java
java Cordic
Cordic table 0 is arctan 1.00000000000000000 = 0.78539816339744830
Cordic table 1 is arctan 0.50000000000000000 = 0.46364760900080610
Cordic table 2 is arctan 0.25000000000000000 = 0.24497866312686414
Cordic table 3 is arctan 0.12500000000000000 = 0.12435499454676144
Cordic table 4 is arctan 0.06250000000000000 = 0.06241880999595735
Cordic table 5 is arctan 0.03125000000000000 = 0.03123983343026828
Cordic table 6 is arctan 0.01562500000000000 = 0.01562372862047683
Cordic table 7 is arctan 0.00781250000000000 = 0.00781234106010111
Cordic table 8 is arctan 0.00390625000000000 = 0.00390623013196697
Cordic table 9 is arctan 0.00195312500000000 = 0.00195312251647882
Cordic table 10 is arctan 0.00097656250000000 = 0.00097656218955932
Cordic table 11 is arctan 0.00048828125000000 = 0.00048828121119490
Cordic table 12 is arctan 0.00024414062500000 = 0.00024414062014936
Cordic table 13 is arctan 0.00012207031250000 = 0.00012207031189367
Cordic table 14 is arctan 0.00006103515625000 = 0.00006103515617421
Cordic table 15 is arctan 0.00003051757812500 = 0.00003051757811553
Cordic table 16 is arctan 0.00001525878906250 = 0.00001525878906132
Cordic table 17 is arctan 0.00000762939453125 = 0.00000762939453110
Cordic table 18 is arctan 0.00000381469726563 = 0.00000381469726561
Cordic table 19 is arctan 0.00000190734863281 = 0.00000190734863281
Cordic table 20 is arctan 0.00000095367431641 = 0.00000095367431641
Cordic table 21 is arctan 0.00000047683715820 = 0.00000047683715820
Cordic table 22 is arctan 0.00000023841857910 = 0.00000023841857910
Cordic table 23 is arctan 0.00000011920928955 = 0.00000011920928955
Cordic table 24 is arctan 0.00000005960464478 = 0.00000005960464478
Cordic table 25 is arctan 0.00000002980232239 = 0.00000002980232239
Cordic table 26 is arctan 0.00000001490116119 = 0.00000001490116119
Cordic table 27 is arctan 0.00000000745058060 = 0.00000000745058060
Cordic table 28 is arctan 0.00000000372529030 = 0.00000000372529030
Cordic table 29 is arctan 0.00000000186264515 = 0.00000000186264515
Cordic table 30 is arctan 0.00000000093132257 = 0.00000000093132257
Cordic table 31 is arctan 0.00000000046566129 = 0.00000000046566129
Cordic 0.000000 is 1.000000 cf 1.000000
Cordic 1.100000 is 0.453596 cf 0.453596
Cordic 1.570796 is 0.000000 cf 0.000000
Cordic 1.047198 is 0.500000 cf 0.500000
Cordic 2.094395 is -0.171636 cf -0.500000
